{
    "/companies/*": {
        "target": "http://akurey.com/trainings/companies.json",
        "secure": false,
        "logLevel": "debug",
        "changeOrigin": true,
        "pathRewrite": {
          "^/companies": ""
        }
      }
  
}
